[{"line":1,"elements":[{"line":4,"name":"","description":"","type":"background","keyword":"Background","steps":[{"name":"url pageUrl","result":{"duration":8000,"status":"passed"},"match":{"location":"karate","arguments":[]},"keyword":"*","line":5},{"name":"def jsonBodyUserList = read('..\/jsons\/response-lista-usuarios.json')","result":{"duration":4785000,"status":"passed"},"match":{"location":"karate","arguments":[]},"keyword":"*","line":6},{"name":"def jsonBodyList = read('..\/jsons\/response-lista-usuarios-body.json')","result":{"duration":4491000,"status":"passed"},"match":{"location":"karate","arguments":[]},"keyword":"*","line":7}]},{"line":21,"name":"lista de usuarios","description":"","id":"lista-de-usuarios","type":"scenario","keyword":"Scenario Outline","steps":[{"name":"def typeUser = 'adminUser' == 'adminUser' ? adminUser : regularUser","result":{"duration":293500,"status":"passed"},"match":{"location":"karate","arguments":[]},"keyword":"*","line":10},{"name":"path 'users'","result":{"duration":86100,"status":"passed"},"match":{"location":"karate","arguments":[]},"keyword":"Given","line":11},{"name":"def dataLogin = call read('login.feature@LoginUser') {email: '#(typeUser)'}","result":{"duration":680433600,"status":"passed"},"match":{"location":"karate","arguments":[]},"keyword":"And","line":12},{"name":"wolox\/naiofy_features\/login.feature","result":{"duration":0,"status":"passed"},"match":{"location":"karate","arguments":[]},"keyword":"","line":12,"doc_string":{"content_type":"","value":"{\n  \"email\": \"cristianadmin@wolox.com.ar\"\n}\n","line":12}},{"name":"url pageUrl","result":{"duration":9700,"status":"passed"},"match":{"location":"karate","arguments":[]},"keyword":"> *","line":5},{"name":"def jsonBody = read('..\/jsons\/response-login.json')","result":{"duration":2318100,"status":"passed"},"match":{"location":"karate","arguments":[]},"keyword":"> *","line":6},{"name":"path 'users','sessions'","result":{"duration":199500,"status":"passed"},"match":{"location":"karate","arguments":[]},"keyword":"> Given","line":25},{"name":"def user = {email: '#(email)'}","result":{"duration":386100,"status":"passed"},"match":{"location":"karate","arguments":[]},"keyword":"> *","line":26},{"name":"def credentials = {email: '#(user.email)',password: '#(clave)'}","result":{"duration":530800,"status":"passed"},"match":{"location":"karate","arguments":[]},"keyword":"> *","line":27},{"name":"request credentials","result":{"duration":7300,"status":"passed"},"match":{"location":"karate","arguments":[]},"keyword":"> And","line":28},{"name":"method post","result":{"duration":666765600,"status":"passed"},"match":{"location":"karate","arguments":[]},"keyword":"> When","line":29,"doc_string":{"content_type":"","value":"14:28:47.443 request:\n1 > POST https:\/\/nodejs-qa-training.herokuapp.com\/users\/sessions\n1 > Accept-Encoding: gzip,deflate\n1 > Connection: Keep-Alive\n1 > Content-Length: 70\n1 > Content-Type: application\/json; charset=UTF-8\n1 > Host: nodejs-qa-training.herokuapp.com\n1 > User-Agent: Apache-HttpClient\/4.5.12 (Java\/1.8.0_221)\n{\"email\":\"cristianadmin@wolox.com.ar\",\"password\":\"candidatoWolox2020\"}\n\n14:28:48.106 response time in milliseconds: 657,52\n1 < 200\n1 < Authorization: eyJ0eXAiOiJKV1QiLCJhbGciOiJIUzI1NiJ9.eyJ1c2VySWQiOjM0MSwicm9sZSI6InJlZ3VsYXIiLCJpYXQiOjE2MDEyMzQ5MjkuMTYyLCJleHAiOjE2MDEyMzY3MjkuMTYyfQ.qiGqrKXowjm6qd-mMGtlicwSvIj94iRpyjj1Eo-2Sns\n1 < Connection: keep-alive\n1 < Content-Length: 51\n1 < Content-Type: application\/json; charset=utf-8\n1 < Date: Sun, 27 Sep 2020 19:28:49 GMT\n1 < Etag: W\/\"33-PLw5LjcTXMEdlPMRjndq7mei0Yk\"\n1 < Server: Cowboy\n1 < Via: 1.1 vegur\n1 < X-Powered-By: Express\n{\"user_id\":341,\"token_expires_at\":\"1601236729.162\"}","line":29}},{"name":"match responseHeaders.Authorization != ''","result":{"duration":548000,"status":"passed"},"match":{"location":"karate","arguments":[]},"keyword":"> And","line":30},{"name":"match response == jsonBody","result":{"duration":216600,"status":"passed"},"match":{"location":"karate","arguments":[]},"keyword":"> And","line":31},{"name":"status 200","result":{"duration":7100,"status":"passed"},"match":{"location":"karate","arguments":[]},"keyword":"> Then","line":32},{"name":"header Authorization = dataLogin.responseHeaders.Authorization[0]","result":{"duration":7478700,"status":"passed"},"match":{"location":"karate","arguments":[]},"keyword":"And","line":13},{"name":"method get","result":{"duration":827544100,"status":"passed"},"match":{"location":"karate","arguments":[]},"keyword":"When","line":14,"doc_string":{"content_type":"","value":"14:28:48.119 request:\n1 > GET https:\/\/nodejs-qa-training.herokuapp.com\/users\n1 > Accept-Encoding: gzip,deflate\n1 > Authorization: eyJ0eXAiOiJKV1QiLCJhbGciOiJIUzI1NiJ9.eyJ1c2VySWQiOjM0MSwicm9sZSI6InJlZ3VsYXIiLCJpYXQiOjE2MDEyMzQ5MjkuMTYyLCJleHAiOjE2MDEyMzY3MjkuMTYyfQ.qiGqrKXowjm6qd-mMGtlicwSvIj94iRpyjj1Eo-2Sns\n1 > Connection: Keep-Alive\n1 > Host: nodejs-qa-training.herokuapp.com\n1 > User-Agent: Apache-HttpClient\/4.5.12 (Java\/1.8.0_221)\n\n14:28:48.943 response time in milliseconds: 823,92\n1 < 200\n1 < Connection: keep-alive\n1 < Content-Length: 1067\n1 < Content-Type: application\/json; charset=utf-8\n1 < Date: Sun, 27 Sep 2020 19:28:50 GMT\n1 < Etag: W\/\"42b-ySWV3Wx7r8D5TRe6FWSoQnAxsKo\"\n1 < Server: Cowboy\n1 < Via: 1.1 vegur\n1 < X-Powered-By: Express\n{\"total_count\":93,\"count\":10,\"total_pages\":10,\"limit\":10,\"offset\":0,\"current_page\":1,\"page\":[{\"first_name\":\"Hernan\",\"last_name\":\"Garcia98\",\"email\":\"hernan003@wolox.com.ar\",\"role\":\"regular\"},{\"first_name\":\"Hernan\",\"last_name\":\"Garcia\",\"email\":\"hernan000@wolox.com.ar\",\"role\":\"regular\"},{\"first_name\":\"Hernan\",\"last_name\":\"Garcia\",\"email\":\"h6@wolox.com.ar\",\"role\":\"regular\"},{\"first_name\":\"regular\",\"last_name\":\"regular\",\"email\":\"regular@wolox.com.ar\",\"role\":\"regular\"},{\"first_name\":\"Jose Antonio\",\"last_name\":\"Bermudez\",\"email\":\"jose.beruda@wolox.com.ar\",\"role\":\"regular\"},{\"first_name\":\"Juan\",\"last_name\":\"Perez\",\"email\":\"jperez@wolox.com.ar\",\"role\":\"regular\"},{\"first_name\":\"Hernan\",\"last_name\":\"Garcia\",\"email\":\"h7@wolox.com.ar\",\"role\":\"regular\"},{\"first_name\":\"Hernan01\",\"last_name\":\"Garcia\",\"email\":\"hernan0x2@wolox.com.ar\",\"role\":\"regular\"},{\"first_name\":\"Juan\",\"last_name\":\"Per2ez\",\"email\":\"jperwez@wolox.com.ar\",\"role\":\"regular\"},{\"first_name\":\"Ju4an\",\"last_name\":\"Per2ez\",\"email\":\"jperwetz@wolox.com.ar\",\"role\":\"regular\"}],\"previous_page\":null,\"next_page\":2}","line":14}},{"name":"match each response.page[*] == jsonBodyUserList","result":{"duration":344300,"status":"passed"},"match":{"location":"karate","arguments":[]},"keyword":"And","line":15},{"name":"match response == jsonBodyList","result":{"duration":130200,"status":"passed"},"match":{"location":"karate","arguments":[]},"keyword":"And","line":16},{"name":"status 200","result":{"duration":3000,"status":"passed"},"match":{"location":"karate","arguments":[]},"keyword":"Then","line":17}]},{"line":4,"name":"","description":"","type":"background","keyword":"Background","steps":[{"name":"url pageUrl","result":{"duration":5300,"status":"passed"},"match":{"location":"karate","arguments":[]},"keyword":"*","line":5},{"name":"def jsonBodyUserList = read('..\/jsons\/response-lista-usuarios.json')","result":{"duration":1166900,"status":"passed"},"match":{"location":"karate","arguments":[]},"keyword":"*","line":6},{"name":"def jsonBodyList = read('..\/jsons\/response-lista-usuarios-body.json')","result":{"duration":5303100,"status":"passed"},"match":{"location":"karate","arguments":[]},"keyword":"*","line":7}]},{"line":22,"name":"lista de usuarios","description":"","id":"lista-de-usuarios","type":"scenario","keyword":"Scenario Outline","steps":[{"name":"def typeUser = 'regularUser' == 'adminUser' ? adminUser : regularUser","result":{"duration":201000,"status":"passed"},"match":{"location":"karate","arguments":[]},"keyword":"*","line":10},{"name":"path 'users'","result":{"duration":53500,"status":"passed"},"match":{"location":"karate","arguments":[]},"keyword":"Given","line":11},{"name":"def dataLogin = call read('login.feature@LoginUser') {email: '#(typeUser)'}","result":{"duration":556593700,"status":"passed"},"match":{"location":"karate","arguments":[]},"keyword":"And","line":12},{"name":"wolox\/naiofy_features\/login.feature","result":{"duration":0,"status":"passed"},"match":{"location":"karate","arguments":[]},"keyword":"","line":12,"doc_string":{"content_type":"","value":"{\n  \"email\": \"cristianregular@wolox.com.ar\"\n}\n","line":12}},{"name":"url pageUrl","result":{"duration":7500,"status":"passed"},"match":{"location":"karate","arguments":[]},"keyword":"> *","line":5},{"name":"def jsonBody = read('..\/jsons\/response-login.json')","result":{"duration":1972200,"status":"passed"},"match":{"location":"karate","arguments":[]},"keyword":"> *","line":6},{"name":"path 'users','sessions'","result":{"duration":137200,"status":"passed"},"match":{"location":"karate","arguments":[]},"keyword":"> Given","line":25},{"name":"def user = {email: '#(email)'}","result":{"duration":206700,"status":"passed"},"match":{"location":"karate","arguments":[]},"keyword":"> *","line":26},{"name":"def credentials = {email: '#(user.email)',password: '#(clave)'}","result":{"duration":171900,"status":"passed"},"match":{"location":"karate","arguments":[]},"keyword":"> *","line":27},{"name":"request credentials","result":{"duration":3700,"status":"passed"},"match":{"location":"karate","arguments":[]},"keyword":"> And","line":28},{"name":"method post","result":{"duration":541155100,"status":"passed"},"match":{"location":"karate","arguments":[]},"keyword":"> When","line":29,"doc_string":{"content_type":"","value":"14:28:48.970 request:\n1 > POST https:\/\/nodejs-qa-training.herokuapp.com\/users\/sessions\n1 > Accept-Encoding: gzip,deflate\n1 > Connection: Keep-Alive\n1 > Content-Length: 72\n1 > Content-Type: application\/json; charset=UTF-8\n1 > Host: nodejs-qa-training.herokuapp.com\n1 > User-Agent: Apache-HttpClient\/4.5.12 (Java\/1.8.0_221)\n{\"email\":\"cristianregular@wolox.com.ar\",\"password\":\"candidatoWolox2020\"}\n\n14:28:49.510 response time in milliseconds: 539,34\n1 < 200\n1 < Authorization: eyJ0eXAiOiJKV1QiLCJhbGciOiJIUzI1NiJ9.eyJ1c2VySWQiOjMyMywicm9sZSI6InJlZ3VsYXIiLCJpYXQiOjE2MDEyMzQ5MzAuNzA1LCJleHAiOjE2MDEyMzY3MzAuNzA1fQ.is8Y88EAUmFWO_6PKLNJXzgfrhWqFdWuGzi8ZIhV-UM\n1 < Connection: keep-alive\n1 < Content-Length: 51\n1 < Content-Type: application\/json; charset=utf-8\n1 < Date: Sun, 27 Sep 2020 19:28:50 GMT\n1 < Etag: W\/\"33-Bn6SZl8p4sj99K8VnA98U57azDc\"\n1 < Server: Cowboy\n1 < Via: 1.1 vegur\n1 < X-Powered-By: Express\n{\"user_id\":323,\"token_expires_at\":\"1601236730.705\"}","line":29}},{"name":"match responseHeaders.Authorization != ''","result":{"duration":230000,"status":"passed"},"match":{"location":"karate","arguments":[]},"keyword":"> And","line":30},{"name":"match response == jsonBody","result":{"duration":57400,"status":"passed"},"match":{"location":"karate","arguments":[]},"keyword":"> And","line":31},{"name":"status 200","result":{"duration":3000,"status":"passed"},"match":{"location":"karate","arguments":[]},"keyword":"> Then","line":32},{"name":"header Authorization = dataLogin.responseHeaders.Authorization[0]","result":{"duration":357800,"status":"passed"},"match":{"location":"karate","arguments":[]},"keyword":"And","line":13},{"name":"method get","result":{"duration":375204900,"status":"passed"},"match":{"location":"karate","arguments":[]},"keyword":"When","line":14,"doc_string":{"content_type":"","value":"14:28:49.513 request:\n1 > GET https:\/\/nodejs-qa-training.herokuapp.com\/users\n1 > Accept-Encoding: gzip,deflate\n1 > Authorization: eyJ0eXAiOiJKV1QiLCJhbGciOiJIUzI1NiJ9.eyJ1c2VySWQiOjMyMywicm9sZSI6InJlZ3VsYXIiLCJpYXQiOjE2MDEyMzQ5MzAuNzA1LCJleHAiOjE2MDEyMzY3MzAuNzA1fQ.is8Y88EAUmFWO_6PKLNJXzgfrhWqFdWuGzi8ZIhV-UM\n1 > Connection: Keep-Alive\n1 > Host: nodejs-qa-training.herokuapp.com\n1 > User-Agent: Apache-HttpClient\/4.5.12 (Java\/1.8.0_221)\n\n14:28:49.885 response time in milliseconds: 372,67\n1 < 200\n1 < Connection: keep-alive\n1 < Content-Length: 1067\n1 < Content-Type: application\/json; charset=utf-8\n1 < Date: Sun, 27 Sep 2020 19:28:51 GMT\n1 < Etag: W\/\"42b-ySWV3Wx7r8D5TRe6FWSoQnAxsKo\"\n1 < Server: Cowboy\n1 < Via: 1.1 vegur\n1 < X-Powered-By: Express\n{\"total_count\":93,\"count\":10,\"total_pages\":10,\"limit\":10,\"offset\":0,\"current_page\":1,\"page\":[{\"first_name\":\"Hernan\",\"last_name\":\"Garcia98\",\"email\":\"hernan003@wolox.com.ar\",\"role\":\"regular\"},{\"first_name\":\"Hernan\",\"last_name\":\"Garcia\",\"email\":\"hernan000@wolox.com.ar\",\"role\":\"regular\"},{\"first_name\":\"Hernan\",\"last_name\":\"Garcia\",\"email\":\"h6@wolox.com.ar\",\"role\":\"regular\"},{\"first_name\":\"regular\",\"last_name\":\"regular\",\"email\":\"regular@wolox.com.ar\",\"role\":\"regular\"},{\"first_name\":\"Jose Antonio\",\"last_name\":\"Bermudez\",\"email\":\"jose.beruda@wolox.com.ar\",\"role\":\"regular\"},{\"first_name\":\"Juan\",\"last_name\":\"Perez\",\"email\":\"jperez@wolox.com.ar\",\"role\":\"regular\"},{\"first_name\":\"Hernan\",\"last_name\":\"Garcia\",\"email\":\"h7@wolox.com.ar\",\"role\":\"regular\"},{\"first_name\":\"Hernan01\",\"last_name\":\"Garcia\",\"email\":\"hernan0x2@wolox.com.ar\",\"role\":\"regular\"},{\"first_name\":\"Juan\",\"last_name\":\"Per2ez\",\"email\":\"jperwez@wolox.com.ar\",\"role\":\"regular\"},{\"first_name\":\"Ju4an\",\"last_name\":\"Per2ez\",\"email\":\"jperwetz@wolox.com.ar\",\"role\":\"regular\"}],\"previous_page\":null,\"next_page\":2}","line":14}},{"name":"match each response.page[*] == jsonBodyUserList","result":{"duration":139000,"status":"passed"},"match":{"location":"karate","arguments":[]},"keyword":"And","line":15},{"name":"match response == jsonBodyList","result":{"duration":40400,"status":"passed"},"match":{"location":"karate","arguments":[]},"keyword":"And","line":16},{"name":"status 200","result":{"duration":2000,"status":"passed"},"match":{"location":"karate","arguments":[]},"keyword":"Then","line":17}]}],"name":"wolox\/naiofy_features\/lista-de-usuarios.feature","description":"Yo como usuario estoy logeado puedo ver la lista de usuarios","id":"","keyword":"Feature","uri":"wolox\/naiofy_features\/lista-de-usuarios.feature"}]