[{"line":1,"elements":[{"line":4,"name":"","description":"","type":"background","keyword":"Background","steps":[{"name":"url pageUrl","result":{"duration":12100,"status":"passed"},"match":{"location":"karate","arguments":[]},"keyword":"*","line":5},{"name":"def jsonBodyUserList = read('.\/jsons\/response-lista-usuarios.json')","result":{"duration":6217800,"status":"passed"},"match":{"location":"karate","arguments":[]},"keyword":"*","line":6},{"name":"def jsonBodyList = read('.\/jsons\/response-lista-usuarios-body.json')","result":{"duration":5593700,"status":"passed"},"match":{"location":"karate","arguments":[]},"keyword":"*","line":7}]},{"line":22,"name":"lista de usuarios","description":"","id":"lista-de-usuarios","type":"scenario","keyword":"Scenario Outline","steps":[{"name":"def typeUser = 'adminUser' == 'adminUser' ? adminUser : regularUser","result":{"duration":356600,"status":"passed"},"match":{"location":"karate","arguments":[]},"keyword":"*","line":10},{"name":"path 'users'","result":{"duration":103100,"status":"passed"},"match":{"location":"karate","arguments":[]},"keyword":"Given","line":11},{"name":"def dataLogin = call read('login.feature@LoginUser') {email: '#(typeUser)'}","result":{"duration":572895100,"status":"passed"},"match":{"location":"karate","arguments":[]},"keyword":"And","line":12},{"name":"woloxn\/Naiofy\/login.feature","result":{"duration":0,"status":"passed"},"match":{"location":"karate","arguments":[]},"keyword":"","line":12,"doc_string":{"content_type":"","value":"{\n  \"email\": \"cristianadmin@wolox.com.ar\"\n}\n","line":12}},{"name":"url pageUrl","result":{"duration":9300,"status":"passed"},"match":{"location":"karate","arguments":[]},"keyword":"> *","line":5},{"name":"def jsonBody = read('.\/jsons\/response-login.json')","result":{"duration":2166300,"status":"passed"},"match":{"location":"karate","arguments":[]},"keyword":"> *","line":6},{"name":"path 'users','sessions'","result":{"duration":177600,"status":"passed"},"match":{"location":"karate","arguments":[]},"keyword":"> Given","line":25},{"name":"def user = {email: '#(email)'}","result":{"duration":357300,"status":"passed"},"match":{"location":"karate","arguments":[]},"keyword":"> *","line":26},{"name":"def credentials = {email: '#(user.email)',password: '#(clave)'}","result":{"duration":629300,"status":"passed"},"match":{"location":"karate","arguments":[]},"keyword":"> *","line":27},{"name":"request credentials","result":{"duration":6700,"status":"passed"},"match":{"location":"karate","arguments":[]},"keyword":"> And","line":28},{"name":"method post","result":{"duration":552243700,"status":"passed"},"match":{"location":"karate","arguments":[]},"keyword":"> When","line":29,"doc_string":{"content_type":"","value":"13:48:20.960 request:\n1 > POST https:\/\/nodejs-qa-training.herokuapp.com\/users\/sessions\n1 > Accept-Encoding: gzip,deflate\n1 > Connection: Keep-Alive\n1 > Content-Length: 70\n1 > Content-Type: application\/json; charset=UTF-8\n1 > Host: nodejs-qa-training.herokuapp.com\n1 > User-Agent: Apache-HttpClient\/4.5.12 (Java\/1.8.0_221)\n{\"email\":\"cristianadmin@wolox.com.ar\",\"password\":\"candidatoWolox2020\"}\n\n13:48:21.509 response time in milliseconds: 549,61\n1 < 200\n1 < Authorization: eyJ0eXAiOiJKV1QiLCJhbGciOiJIUzI1NiJ9.eyJ1c2VySWQiOjM0MSwicm9sZSI6InJlZ3VsYXIiLCJpYXQiOjE2MDEyMzI1MDIuNzAzLCJleHAiOjE2MDEyMzQzMDIuNzAzfQ.zhXb8fBiH-f3UU5zRefp81JZC2Z6rLj0PWN0hrJ_xAc\n1 < Connection: keep-alive\n1 < Content-Length: 51\n1 < Content-Type: application\/json; charset=utf-8\n1 < Date: Sun, 27 Sep 2020 18:48:22 GMT\n1 < Etag: W\/\"33-odzuo9p9TWr8JrwJChiVEfGyKZs\"\n1 < Server: Cowboy\n1 < Via: 1.1 vegur\n1 < X-Powered-By: Express\n{\"user_id\":341,\"token_expires_at\":\"1601234302.703\"}","line":29}},{"name":"match responseHeaders.Authorization != ''","result":{"duration":233500,"status":"passed"},"match":{"location":"karate","arguments":[]},"keyword":"> And","line":30},{"name":"match response == jsonBody","result":{"duration":59700,"status":"passed"},"match":{"location":"karate","arguments":[]},"keyword":"> And","line":31},{"name":"status 200","result":{"duration":2300,"status":"passed"},"match":{"location":"karate","arguments":[]},"keyword":"> Then","line":32},{"name":"header Authorization = dataLogin.responseHeaders.Authorization[0]","result":{"duration":510400,"status":"passed"},"match":{"location":"karate","arguments":[]},"keyword":"And","line":13},{"name":"method get","result":{"duration":452022000,"status":"passed"},"match":{"location":"karate","arguments":[]},"keyword":"When","line":14,"doc_string":{"content_type":"","value":"13:48:21.512 request:\n1 > GET https:\/\/nodejs-qa-training.herokuapp.com\/users\n1 > Accept-Encoding: gzip,deflate\n1 > Authorization: eyJ0eXAiOiJKV1QiLCJhbGciOiJIUzI1NiJ9.eyJ1c2VySWQiOjM0MSwicm9sZSI6InJlZ3VsYXIiLCJpYXQiOjE2MDEyMzI1MDIuNzAzLCJleHAiOjE2MDEyMzQzMDIuNzAzfQ.zhXb8fBiH-f3UU5zRefp81JZC2Z6rLj0PWN0hrJ_xAc\n1 > Connection: Keep-Alive\n1 > Host: nodejs-qa-training.herokuapp.com\n1 > User-Agent: Apache-HttpClient\/4.5.12 (Java\/1.8.0_221)\n\n13:48:21.962 response time in milliseconds: 450,04\n1 < 200\n1 < Connection: keep-alive\n1 < Content-Length: 1066\n1 < Content-Type: application\/json; charset=utf-8\n1 < Date: Sun, 27 Sep 2020 18:48:23 GMT\n1 < Etag: W\/\"42a-+pecwbUcbmdsWkcJ\/xmt0r54i0I\"\n1 < Server: Cowboy\n1 < Via: 1.1 vegur\n1 < X-Powered-By: Express\n{\"total_count\":85,\"count\":10,\"total_pages\":9,\"limit\":10,\"offset\":0,\"current_page\":1,\"page\":[{\"first_name\":\"Hernan\",\"last_name\":\"Garcia98\",\"email\":\"hernan003@wolox.com.ar\",\"role\":\"regular\"},{\"first_name\":\"Hernan\",\"last_name\":\"Garcia\",\"email\":\"hernan000@wolox.com.ar\",\"role\":\"regular\"},{\"first_name\":\"Hernan\",\"last_name\":\"Garcia\",\"email\":\"h6@wolox.com.ar\",\"role\":\"regular\"},{\"first_name\":\"regular\",\"last_name\":\"regular\",\"email\":\"regular@wolox.com.ar\",\"role\":\"regular\"},{\"first_name\":\"Jose Antonio\",\"last_name\":\"Bermudez\",\"email\":\"jose.beruda@wolox.com.ar\",\"role\":\"regular\"},{\"first_name\":\"Juan\",\"last_name\":\"Perez\",\"email\":\"jperez@wolox.com.ar\",\"role\":\"regular\"},{\"first_name\":\"Hernan\",\"last_name\":\"Garcia\",\"email\":\"h7@wolox.com.ar\",\"role\":\"regular\"},{\"first_name\":\"Hernan01\",\"last_name\":\"Garcia\",\"email\":\"hernan0x2@wolox.com.ar\",\"role\":\"regular\"},{\"first_name\":\"Juan\",\"last_name\":\"Per2ez\",\"email\":\"jperwez@wolox.com.ar\",\"role\":\"regular\"},{\"first_name\":\"Ju4an\",\"last_name\":\"Per2ez\",\"email\":\"jperwetz@wolox.com.ar\",\"role\":\"regular\"}],\"previous_page\":null,\"next_page\":2}","line":14}},{"name":"match each response.page[*] == jsonBodyUserList","result":{"duration":547300,"status":"passed"},"match":{"location":"karate","arguments":[]},"keyword":"And","line":15},{"name":"match response == jsonBodyList","result":{"duration":149700,"status":"passed"},"match":{"location":"karate","arguments":[]},"keyword":"And","line":16},{"name":"print response","result":{"duration":1560900,"status":"passed"},"match":{"location":"karate","arguments":[]},"keyword":"*","line":17,"doc_string":{"content_type":"","value":"13:48:21.965 [print] {\n  \"next_page\": 2,\n  \"offset\": 0,\n  \"total_count\": 85,\n  \"count\": 10,\n  \"limit\": 10,\n  \"total_pages\": 9,\n  \"page\": [\n    {\n      \"role\": \"regular\",\n      \"last_name\": \"Garcia98\",\n      \"first_name\": \"Hernan\",\n      \"email\": \"hernan003@wolox.com.ar\"\n    },\n    {\n      \"role\": \"regular\",\n      \"last_name\": \"Garcia\",\n      \"first_name\": \"Hernan\",\n      \"email\": \"hernan000@wolox.com.ar\"\n    },\n    {\n      \"role\": \"regular\",\n      \"last_name\": \"Garcia\",\n      \"first_name\": \"Hernan\",\n      \"email\": \"h6@wolox.com.ar\"\n    },\n    {\n      \"role\": \"regular\",\n      \"last_name\": \"regular\",\n      \"first_name\": \"regular\",\n      \"email\": \"regular@wolox.com.ar\"\n    },\n    {\n      \"role\": \"regular\",\n      \"last_name\": \"Bermudez\",\n      \"first_name\": \"Jose Antonio\",\n      \"email\": \"jose.beruda@wolox.com.ar\"\n    },\n    {\n      \"role\": \"regular\",\n      \"last_name\": \"Perez\",\n      \"first_name\": \"Juan\",\n      \"email\": \"jperez@wolox.com.ar\"\n    },\n    {\n      \"role\": \"regular\",\n      \"last_name\": \"Garcia\",\n      \"first_name\": \"Hernan\",\n      \"email\": \"h7@wolox.com.ar\"\n    },\n    {\n      \"role\": \"regular\",\n      \"last_name\": \"Garcia\",\n      \"first_name\": \"Hernan01\",\n      \"email\": \"hernan0x2@wolox.com.ar\"\n    },\n    {\n      \"role\": \"regular\",\n      \"last_name\": \"Per2ez\",\n      \"first_name\": \"Juan\",\n      \"email\": \"jperwez@wolox.com.ar\"\n    },\n    {\n      \"role\": \"regular\",\n      \"last_name\": \"Per2ez\",\n      \"first_name\": \"Ju4an\",\n      \"email\": \"jperwetz@wolox.com.ar\"\n    }\n  ],\n  \"previous_page\": null,\n  \"current_page\": 1\n}","line":17}},{"name":"status 200","result":{"duration":5900,"status":"passed"},"match":{"location":"karate","arguments":[]},"keyword":"Then","line":18}]},{"line":4,"name":"","description":"","type":"background","keyword":"Background","steps":[{"name":"url pageUrl","result":{"duration":7900,"status":"passed"},"match":{"location":"karate","arguments":[]},"keyword":"*","line":5},{"name":"def jsonBodyUserList = read('.\/jsons\/response-lista-usuarios.json')","result":{"duration":1335000,"status":"passed"},"match":{"location":"karate","arguments":[]},"keyword":"*","line":6},{"name":"def jsonBodyList = read('.\/jsons\/response-lista-usuarios-body.json')","result":{"duration":1313500,"status":"passed"},"match":{"location":"karate","arguments":[]},"keyword":"*","line":7}]},{"line":23,"name":"lista de usuarios","description":"","id":"lista-de-usuarios","type":"scenario","keyword":"Scenario Outline","steps":[{"name":"def typeUser = 'regularUser' == 'adminUser' ? adminUser : regularUser","result":{"duration":272200,"status":"passed"},"match":{"location":"karate","arguments":[]},"keyword":"*","line":10},{"name":"path 'users'","result":{"duration":74600,"status":"passed"},"match":{"location":"karate","arguments":[]},"keyword":"Given","line":11},{"name":"def dataLogin = call read('login.feature@LoginUser') {email: '#(typeUser)'}","result":{"duration":821284800,"status":"passed"},"match":{"location":"karate","arguments":[]},"keyword":"And","line":12},{"name":"woloxn\/Naiofy\/login.feature","result":{"duration":0,"status":"passed"},"match":{"location":"karate","arguments":[]},"keyword":"","line":12,"doc_string":{"content_type":"","value":"{\n  \"email\": \"cristianregular@wolox.com.ar\"\n}\n","line":12}},{"name":"url pageUrl","result":{"duration":9500,"status":"passed"},"match":{"location":"karate","arguments":[]},"keyword":"> *","line":5},{"name":"def jsonBody = read('.\/jsons\/response-login.json')","result":{"duration":2964600,"status":"passed"},"match":{"location":"karate","arguments":[]},"keyword":"> *","line":6},{"name":"path 'users','sessions'","result":{"duration":158300,"status":"passed"},"match":{"location":"karate","arguments":[]},"keyword":"> Given","line":25},{"name":"def user = {email: '#(email)'}","result":{"duration":187900,"status":"passed"},"match":{"location":"karate","arguments":[]},"keyword":"> *","line":26},{"name":"def credentials = {email: '#(user.email)',password: '#(clave)'}","result":{"duration":260300,"status":"passed"},"match":{"location":"karate","arguments":[]},"keyword":"> *","line":27},{"name":"request credentials","result":{"duration":5400,"status":"passed"},"match":{"location":"karate","arguments":[]},"keyword":"> And","line":28},{"name":"method post","result":{"duration":810106600,"status":"passed"},"match":{"location":"karate","arguments":[]},"keyword":"> When","line":29,"doc_string":{"content_type":"","value":"13:48:21.985 request:\n1 > POST https:\/\/nodejs-qa-training.herokuapp.com\/users\/sessions\n1 > Accept-Encoding: gzip,deflate\n1 > Connection: Keep-Alive\n1 > Content-Length: 72\n1 > Content-Type: application\/json; charset=UTF-8\n1 > Host: nodejs-qa-training.herokuapp.com\n1 > User-Agent: Apache-HttpClient\/4.5.12 (Java\/1.8.0_221)\n{\"email\":\"cristianregular@wolox.com.ar\",\"password\":\"candidatoWolox2020\"}\n\n13:48:22.793 response time in milliseconds: 808,23\n1 < 200\n1 < Authorization: eyJ0eXAiOiJKV1QiLCJhbGciOiJIUzI1NiJ9.eyJ1c2VySWQiOjMyMywicm9sZSI6InJlZ3VsYXIiLCJpYXQiOjE2MDEyMzI1MDMuOTg5LCJleHAiOjE2MDEyMzQzMDMuOTg5fQ.L6aSyElvCaO72gbzDvwuFOkiIDfemaIRax-oZHFD82Q\n1 < Connection: keep-alive\n1 < Content-Length: 51\n1 < Content-Type: application\/json; charset=utf-8\n1 < Date: Sun, 27 Sep 2020 18:48:23 GMT\n1 < Etag: W\/\"33-UVUeVWb+v\/PUEdzknxXvRd4w\/YM\"\n1 < Server: Cowboy\n1 < Via: 1.1 vegur\n1 < X-Powered-By: Express\n{\"user_id\":323,\"token_expires_at\":\"1601234303.989\"}","line":29}},{"name":"match responseHeaders.Authorization != ''","result":{"duration":161700,"status":"passed"},"match":{"location":"karate","arguments":[]},"keyword":"> And","line":30},{"name":"match response == jsonBody","result":{"duration":40500,"status":"passed"},"match":{"location":"karate","arguments":[]},"keyword":"> And","line":31},{"name":"status 200","result":{"duration":2500,"status":"passed"},"match":{"location":"karate","arguments":[]},"keyword":"> Then","line":32},{"name":"header Authorization = dataLogin.responseHeaders.Authorization[0]","result":{"duration":94400,"status":"passed"},"match":{"location":"karate","arguments":[]},"keyword":"And","line":13},{"name":"method get","result":{"duration":352811900,"status":"passed"},"match":{"location":"karate","arguments":[]},"keyword":"When","line":14,"doc_string":{"content_type":"","value":"13:48:22.795 request:\n1 > GET https:\/\/nodejs-qa-training.herokuapp.com\/users\n1 > Accept-Encoding: gzip,deflate\n1 > Authorization: eyJ0eXAiOiJKV1QiLCJhbGciOiJIUzI1NiJ9.eyJ1c2VySWQiOjMyMywicm9sZSI6InJlZ3VsYXIiLCJpYXQiOjE2MDEyMzI1MDMuOTg5LCJleHAiOjE2MDEyMzQzMDMuOTg5fQ.L6aSyElvCaO72gbzDvwuFOkiIDfemaIRax-oZHFD82Q\n1 > Connection: Keep-Alive\n1 > Host: nodejs-qa-training.herokuapp.com\n1 > User-Agent: Apache-HttpClient\/4.5.12 (Java\/1.8.0_221)\n\n13:48:23.147 response time in milliseconds: 351,36\n1 < 200\n1 < Connection: keep-alive\n1 < Content-Length: 1066\n1 < Content-Type: application\/json; charset=utf-8\n1 < Date: Sun, 27 Sep 2020 18:48:24 GMT\n1 < Etag: W\/\"42a-+pecwbUcbmdsWkcJ\/xmt0r54i0I\"\n1 < Server: Cowboy\n1 < Via: 1.1 vegur\n1 < X-Powered-By: Express\n{\"total_count\":85,\"count\":10,\"total_pages\":9,\"limit\":10,\"offset\":0,\"current_page\":1,\"page\":[{\"first_name\":\"Hernan\",\"last_name\":\"Garcia98\",\"email\":\"hernan003@wolox.com.ar\",\"role\":\"regular\"},{\"first_name\":\"Hernan\",\"last_name\":\"Garcia\",\"email\":\"hernan000@wolox.com.ar\",\"role\":\"regular\"},{\"first_name\":\"Hernan\",\"last_name\":\"Garcia\",\"email\":\"h6@wolox.com.ar\",\"role\":\"regular\"},{\"first_name\":\"regular\",\"last_name\":\"regular\",\"email\":\"regular@wolox.com.ar\",\"role\":\"regular\"},{\"first_name\":\"Jose Antonio\",\"last_name\":\"Bermudez\",\"email\":\"jose.beruda@wolox.com.ar\",\"role\":\"regular\"},{\"first_name\":\"Juan\",\"last_name\":\"Perez\",\"email\":\"jperez@wolox.com.ar\",\"role\":\"regular\"},{\"first_name\":\"Hernan\",\"last_name\":\"Garcia\",\"email\":\"h7@wolox.com.ar\",\"role\":\"regular\"},{\"first_name\":\"Hernan01\",\"last_name\":\"Garcia\",\"email\":\"hernan0x2@wolox.com.ar\",\"role\":\"regular\"},{\"first_name\":\"Juan\",\"last_name\":\"Per2ez\",\"email\":\"jperwez@wolox.com.ar\",\"role\":\"regular\"},{\"first_name\":\"Ju4an\",\"last_name\":\"Per2ez\",\"email\":\"jperwetz@wolox.com.ar\",\"role\":\"regular\"}],\"previous_page\":null,\"next_page\":2}","line":14}},{"name":"match each response.page[*] == jsonBodyUserList","result":{"duration":204400,"status":"passed"},"match":{"location":"karate","arguments":[]},"keyword":"And","line":15},{"name":"match response == jsonBodyList","result":{"duration":78200,"status":"passed"},"match":{"location":"karate","arguments":[]},"keyword":"And","line":16},{"name":"print response","result":{"duration":496700,"status":"passed"},"match":{"location":"karate","arguments":[]},"keyword":"*","line":17,"doc_string":{"content_type":"","value":"13:48:23.148 [print] {\n  \"next_page\": 2,\n  \"offset\": 0,\n  \"total_count\": 85,\n  \"count\": 10,\n  \"limit\": 10,\n  \"total_pages\": 9,\n  \"page\": [\n    {\n      \"role\": \"regular\",\n      \"last_name\": \"Garcia98\",\n      \"first_name\": \"Hernan\",\n      \"email\": \"hernan003@wolox.com.ar\"\n    },\n    {\n      \"role\": \"regular\",\n      \"last_name\": \"Garcia\",\n      \"first_name\": \"Hernan\",\n      \"email\": \"hernan000@wolox.com.ar\"\n    },\n    {\n      \"role\": \"regular\",\n      \"last_name\": \"Garcia\",\n      \"first_name\": \"Hernan\",\n      \"email\": \"h6@wolox.com.ar\"\n    },\n    {\n      \"role\": \"regular\",\n      \"last_name\": \"regular\",\n      \"first_name\": \"regular\",\n      \"email\": \"regular@wolox.com.ar\"\n    },\n    {\n      \"role\": \"regular\",\n      \"last_name\": \"Bermudez\",\n      \"first_name\": \"Jose Antonio\",\n      \"email\": \"jose.beruda@wolox.com.ar\"\n    },\n    {\n      \"role\": \"regular\",\n      \"last_name\": \"Perez\",\n      \"first_name\": \"Juan\",\n      \"email\": \"jperez@wolox.com.ar\"\n    },\n    {\n      \"role\": \"regular\",\n      \"last_name\": \"Garcia\",\n      \"first_name\": \"Hernan\",\n      \"email\": \"h7@wolox.com.ar\"\n    },\n    {\n      \"role\": \"regular\",\n      \"last_name\": \"Garcia\",\n      \"first_name\": \"Hernan01\",\n      \"email\": \"hernan0x2@wolox.com.ar\"\n    },\n    {\n      \"role\": \"regular\",\n      \"last_name\": \"Per2ez\",\n      \"first_name\": \"Juan\",\n      \"email\": \"jperwez@wolox.com.ar\"\n    },\n    {\n      \"role\": \"regular\",\n      \"last_name\": \"Per2ez\",\n      \"first_name\": \"Ju4an\",\n      \"email\": \"jperwetz@wolox.com.ar\"\n    }\n  ],\n  \"previous_page\": null,\n  \"current_page\": 1\n}","line":17}},{"name":"status 200","result":{"duration":4200,"status":"passed"},"match":{"location":"karate","arguments":[]},"keyword":"Then","line":18}]}],"name":"woloxn\/Naiofy\/lista-de-usuarios.feature","description":"Yo como usuario estoy logeado puedo ver la lista de usuarios","id":"","keyword":"Feature","uri":"woloxn\/Naiofy\/lista-de-usuarios.feature"}]